module github.com/AccumulateNetwork/bridge

go 1.18

replace gitlab.com/accumulatenetwork/accumulate/internal/url => ./url

require (
	github.com/ethereum/go-ethereum v1.10.19
	github.com/go-yaml/yaml v2.1.0+incompatible
	github.com/jinzhu/configor v1.2.1
	github.com/labstack/gommon v0.3.1
	github.com/mcuadros/go-defaults v1.2.0
	github.com/stretchr/testify v1.8.0
	github.com/urfave/cli/v2 v2.8.1
)

require (
	github.com/btcsuite/btcd v0.22.1 // indirect
	github.com/btcsuite/btcutil v1.0.3-0.20201208143702-a53e38424cce // indirect
	github.com/kardianos/service v1.2.0 // indirect
	github.com/onsi/gomega v1.19.0 // indirect
	github.com/rs/zerolog v1.26.1 // indirect
	github.com/tendermint/tendermint v0.36.0-dev.0.20220415213734-226bc94c5fc9 // indirect
)

require (
	github.com/go-playground/locales v0.14.0 // indirect
	github.com/go-playground/universal-translator v0.18.0 // indirect
	github.com/go-playground/validator/v10 v10.11.0
	github.com/leodido/go-urn v1.2.1 // indirect
	golang.org/x/sync v0.0.0-20220513210516-0976fa681c29 // indirect
)

require (
	github.com/BurntSushi/toml v1.1.0 // indirect
	github.com/StackExchange/wmi v0.0.0-20180116203802-5d049714c4a6 // indirect
	github.com/VictoriaMetrics/fastcache v1.6.0 // indirect
	github.com/btcsuite/btcd/btcec/v2 v2.2.0 // indirect
	github.com/cespare/xxhash/v2 v2.1.2 // indirect
	github.com/cpuguy83/go-md2man/v2 v2.0.2 // indirect
	github.com/davecgh/go-spew v1.1.2-0.20180830191138-d8f796af33cc // indirect
	github.com/deckarep/golang-set v1.8.0 // indirect
	github.com/decred/dcrd/dcrec/secp256k1/v4 v4.0.1 // indirect
	github.com/edsrzf/mmap-go v1.0.0 // indirect
	github.com/gballet/go-libpcsclite v0.0.0-20190607065134-2772fd86a8ff // indirect
	github.com/go-ole/go-ole v1.2.6 // indirect
	github.com/go-stack/stack v1.8.0 // indirect
	github.com/golang/protobuf v1.5.2 // indirect
	github.com/golang/snappy v0.0.4 // indirect
	github.com/google/uuid v1.3.0 // indirect
	github.com/gorilla/websocket v1.5.0 // indirect
	github.com/hashicorp/golang-lru v0.5.5-0.20210104140557-80c98217689d // indirect
	github.com/holiman/bloomfilter/v2 v2.0.3 // indirect
	github.com/holiman/uint256 v1.2.0 // indirect
	github.com/huin/goupnp v1.0.3 // indirect
	github.com/jackpal/go-nat-pmp v1.0.2 // indirect
	github.com/karalabe/usb v0.0.2 // indirect
	github.com/mattn/go-colorable v0.1.12 // indirect
	github.com/mattn/go-isatty v0.0.14 // indirect
	github.com/mattn/go-runewidth v0.0.9 // indirect
	github.com/olekukonko/tablewriter v0.0.5 // indirect
	github.com/peterh/liner v1.1.1-0.20190123174540-a2c9a5303de7 // indirect
	github.com/pkg/errors v0.9.1 // indirect
	github.com/pmezard/go-difflib v1.0.0 // indirect
	github.com/prometheus/tsdb v0.7.1 // indirect
	github.com/rjeczalik/notify v0.9.1 // indirect
	github.com/russross/blackfriday/v2 v2.1.0 // indirect
	github.com/shirou/gopsutil v3.21.4-0.20210419000835-c7a38de76ee5+incompatible // indirect
	github.com/status-im/keycard-go v0.0.0-20190316090335-8537d3370df4 // indirect
	github.com/syndtr/goleveldb v1.0.1-0.20210819022825-2ae1ddf74ef7 // indirect
	github.com/tklauser/go-sysconf v0.3.10 // indirect
	github.com/tklauser/numcpus v0.4.0 // indirect
	github.com/tyler-smith/go-bip39 v1.1.0 // indirect
	github.com/valyala/bytebufferpool v1.0.0 // indirect
	github.com/valyala/fasttemplate v1.2.1 // indirect
	github.com/xrash/smetrics v0.0.0-20201216005158-039620a65673 // indirect
	github.com/ybbus/jsonrpc/v3 v3.1.0
	gitlab.com/accumulatenetwork/accumulate v0.6.1-0.20220716034207-16f226efefd4
	go.neonxp.dev/jsonrpc2 v1.1.1
	golang.org/x/crypto v0.0.0-20220525230936-793ad666bf5e // indirect
	golang.org/x/sys v0.0.0-20220702020025-31831981b65f // indirect
	golang.org/x/text v0.3.7 // indirect
	google.golang.org/protobuf v1.28.0 // indirect
	gopkg.in/natefinch/npipe.v2 v2.0.0-20160621034901-c1b8fa8bdcce // indirect
	gopkg.in/yaml.v2 v2.4.0 // indirect
	gopkg.in/yaml.v3 v3.0.1 // indirect
)
